{
  "products": [
    {
      "id": 330,
      "name": "Go-kart race",
      "price": 21.0
    },
    {
      "id": 332,
      "name": "Fries",
      "price": 4.0
    },
    {
      "id": 335,
      "name": "Coffee/tea with apple pie",
      "price": 5.0
    },
    {
      "id": 347,
      "name": "Kids Race",
      "price": 7.0
    },
    {
      "id": 348,
      "name": "Adult race",
      "price": 10.0
    }
  ],
  "orders": [
    {
      "id": 6554,
      "datetime_utc": "2020-01-08T14:52:47Z",
      "amount": 82.96,
      "currency": "EUR",
      "number_of_persons": 4,
      "status": "Active"
    },
    {
      "id": 6558,
      "datetime_utc": "2020-01-14T06:52:16Z",
      "amount": 199.9,
      "currency": "EUR",
      "number_of_persons": 10,
      "status": "Active"
    },
    {
      "id": 6560,
      "datetime_utc": "2020-01-14T07:01:30Z",
      "amount": 82.96,
      "currency": "EUR",
      "number_of_persons": 4,
      "status": "Active"
    },
    {
      "id": 6564,
      "datetime_utc": "2020-01-20T12:38:35Z",
      "amount": 79.96,
      "currency": "EUR",
      "number_of_persons": 4,
      "status": "Active"
    },
    {
      "id": 6565,
      "datetime_utc": "2020-01-20T12:56:11Z",
      "amount": 99.95,
      "currency": "EUR",
      "number_of_persons": 5,
      "status": "Active"
    },
    {
      "id": 6566,
      "datetime_utc": "2020-01-20T13:19:40Z",
      "amount": 139.93,
      "currency": "EUR",
      "number_of_persons": 7,
      "status": "Active"
    },
    {
      "id": 6569,
      "datetime_utc": "2020-01-23T11:45:35Z",
      "amount": 79.96,
      "currency": "EUR",
      "number_of_persons": 4,
      "status": "Active"
    },
    {
      "id": 6570,
      "datetime_utc": "2020-01-23T12:03:48Z",
      "amount": 79.96,
      "currency": "EUR",
      "number_of_persons": 4,
      "status": "Active"
    },
    {
      "id": 6571,
      "datetime_utc": "2020-01-24T22:22:41Z",
      "amount": 22.99,
      "currency": "EUR",
      "number_of_persons": 1,
      "status": "Active"
    },
    {
      "id": 6572,
      "datetime_utc": "2020-01-24T22:34:04Z",
      "amount": 22.99,
      "currency": "EUR",
      "number_of_persons": 1,
      "status": "Active"
    },
    {
      "id": 6573,
      "datetime_utc": "2020-01-24T23:02:34Z",
      "amount": 22.99,
      "currency": "EUR",
      "number_of_persons": 1,
      "status": "Active"
    },
    {
      "id": 6591,
      "datetime_utc": "2020-01-27T14:22:50Z",
      "amount": 339.0,
      "currency": "EUR",
      "number_of_persons": 6,
      "status": "Active"
    },
    {
      "id": 6592,
      "datetime_utc": "2020-01-27T16:49:50Z",
      "amount": 252.0,
      "currency": "EUR",
      "number_of_persons": 12,
      "status": "Active"
    },
    {
      "id": 6593,
      "datetime_utc": "2020-01-27T16:50:48Z",
      "amount": 252.0,
      "currency": "EUR",
      "number_of_persons": 12,
      "status": "Active"
    },
    {
      "id": 6594,
      "datetime_utc": "2020-01-27T18:17:24Z",
      "amount": 24.0,
      "currency": "EUR",
      "number_of_persons": 1,
      "status": "Active"
    },
    {
      "id": 6595,
      "datetime_utc": "2020-01-27T18:20:06Z",
      "amount": 252.0,
      "currency": "EUR",
      "number_of_persons": 12,
      "status": "Active"
    },
    {
      "id": 6596,
      "datetime_utc": "2020-01-27T19:15:19Z",
      "amount": 252.0,
      "currency": "EUR",
      "number_of_persons": 12,
      "status": "Active"
    },
    {
      "id": 6597,
      "datetime_utc": "2020-01-27T19:17:20Z",
      "amount": 24.0,
      "currency": "EUR",
      "number_of_persons": 1,
      "status": "Active"
    },
    {
      "id": 6598,
      "datetime_utc": "2020-01-27T19:21:22Z",
      "amount": 24.0,
      "currency": "EUR",
      "number_of_persons": 1,
      "status": "Active"
    },
    {
      "id": 6599,
      "datetime_utc": "2020-01-27T19:41:05Z",
      "amount": 24.0,
      "currency": "EUR",
      "number_of_persons": 1,
      "status": "Active"
    },
    {
      "id": 6600,
      "datetime_utc": "2020-01-29T10:26:04Z",
      "amount": 105.0,
      "currency": "EUR",
      "number_of_persons": 5,
      "status": "Active"
    },
    {
      "id": 6603,
      "datetime_utc": "2020-01-29T11:45:13Z",
      "amount": 69.78,
      "currency": "EUR",
      "number_of_persons": 3,
      "status": "Active"
    },
    {
      "id": 6604,
      "datetime_utc": "2020-01-29T13:39:48Z",
      "amount": 252.0,
      "currency": "EUR",
      "number_of_persons": 12,
      "status": "Active"
    },
    {
      "id": 6605,
      "datetime_utc": "2020-01-29T13:39:56Z",
      "amount": 168.0,
      "currency": "EUR",
      "number_of_persons": 8,
      "status": "Active"
    },
    {
      "id": 6606,
      "datetime_utc": "2020-01-29T13:46:22Z",
      "amount": 24.0,
      "currency": "EUR",
      "number_of_persons": 1,
      "status": "Active"
    },
    {
      "id": 6607,
      "datetime_utc": "2020-01-29T13:47:19Z",
      "amount": 252.0,
      "currency": "EUR",
      "number_of_persons": 12,
      "status": "Active"
    },
    {
      "id": 6608,
      "datetime_utc": "2020-01-29T14:18:36Z",
      "amount": 73.0,
      "currency": "EUR",
      "number_of_persons": 2,
      "status": "Active"
    },
    {
      "id": 6609,
      "datetime_utc": "2020-01-29T14:28:54Z",
      "amount": 143.0,
      "currency": "EUR",
      "number_of_persons": 4,
      "status": "Active"
    },
    {
      "id": 6610,
      "datetime_utc": "2020-01-29T14:28:56Z",
      "amount": 84.0,
      "currency": "EUR",
      "number_of_persons": 4,
      "status": "Active"
    },
    {
      "id": 6613,
      "datetime_utc": "2020-01-29T23:37:40Z",
      "amount": 73.0,
      "currency": "EUR",
      "number_of_persons": 2,
      "status": "Active"
    },
    {
      "id": 6614,
      "datetime_utc": "2020-01-29T23:41:28Z",
      "amount": 45.0,
      "currency": "EUR",
      "number_of_persons": 2,
      "status": "Active"
    },
    {
      "id": 6615,
      "datetime_utc": "2020-01-29T23:52:03Z",
      "amount": 73.0,
      "currency": "EUR",
      "number_of_persons": 2,
      "status": "Active"
    },
    {
      "id": 6616,
      "datetime_utc": "2020-01-29T23:54:42Z",
      "amount": 45.0,
      "currency": "EUR",
      "number_of_persons": 2,
      "status": "Active"
    },
    {
      "id": 6617,
      "datetime_utc": "2020-01-29T23:56:27Z",
      "amount": 24.0,
      "currency": "EUR",
      "number_of_persons": 1,
      "status": "Active"
    },
    {
      "id": 6618,
      "datetime_utc": "2020-01-30T07:47:51Z",
      "amount": 63.0,
      "currency": "EUR",
      "number_of_persons": 3,
      "status": "Active"
    },
    {
      "id": 6619,
      "datetime_utc": "2020-01-30T08:25:26Z",
      "amount": 129.0,
      "currency": "EUR",
      "number_of_persons": 6,
      "status": "Active"
    },
    {
      "id": 6620,
      "datetime_utc": "2020-01-30T08:31:51Z",
      "amount": 129.0,
      "currency": "EUR",
      "number_of_persons": 6,
      "status": "Active"
    },
    {
      "id": 6621,
      "datetime_utc": "2020-01-30T21:01:55Z",
      "amount": 24.0,
      "currency": "EUR",
      "number_of_persons": 1,
      "status": "Active"
    },
    {
      "id": 6622,
      "datetime_utc": "2020-01-30T21:04:08Z",
      "amount": 73.0,
      "currency": "EUR",
      "number_of_persons": 2,
      "status": "Active"
    },
    {
      "id": 6623,
      "datetime_utc": "2020-01-30T23:34:56Z",
      "amount": 73.0,
      "currency": "EUR",
      "number_of_persons": 2,
      "status": "Active"
    },
    {
      "id": 6624,
      "datetime_utc": "2020-01-30T23:40:28Z",
      "amount": 73.0,
      "currency": "EUR",
      "number_of_persons": 2,
      "status": "Active"
    },
    {
      "id": 6625,
      "datetime_utc": "2020-01-30T23:55:56Z",
      "amount": 73.0,
      "currency": "EUR",
      "number_of_persons": 2,
      "status": "Active"
    },
    {
      "id": 6626,
      "datetime_utc": "2020-01-31T00:05:30Z",
      "amount": 73.0,
      "currency": "EUR",
      "number_of_persons": 2,
      "status": "Active"
    },
    {
      "id": 6627,
      "datetime_utc": "2020-01-31T00:14:18Z",
      "amount": 24.0,
      "currency": "EUR",
      "number_of_persons": 1,
      "status": "Active"
    },
    {
      "id": 6628,
      "datetime_utc": "2020-01-31T00:28:35Z",
      "amount": 24.0,
      "currency": "EUR",
      "number_of_persons": 1,
      "status": "Active"
    },
    {
      "id": 6631,
      "datetime_utc": "2020-01-31T00:42:12Z",
      "amount": 1890.0,
      "currency": "EUR",
      "number_of_persons": 90,
      "status": "Active"
    },
    {
      "id": 6633,
      "datetime_utc": "2020-01-31T00:42:16Z",
      "amount": 840.0,
      "currency": "EUR",
      "number_of_persons": 40,
      "status": "Active"
    },
    {
      "id": 6634,
      "datetime_utc": "2020-01-31T00:42:18Z",
      "amount": 567.0,
      "currency": "EUR",
      "number_of_persons": 27,
      "status": "Active"
    },
    {
      "id": 6644,
      "datetime_utc": "2020-01-31T00:48:40Z",
      "amount": 73.0,
      "currency": "EUR",
      "number_of_persons": 2,
      "status": "Active"
    },
    {
      "id": 6645,
      "datetime_utc": "2020-01-31T00:56:11Z",
      "amount": 24.0,
      "currency": "EUR",
      "number_of_persons": 1,
      "status": "Active"
    },
    {
      "id": 6646,
      "datetime_utc": "2020-01-31T01:01:04Z",
      "amount": 24.0,
      "currency": "EUR",
      "number_of_persons": 1,
      "status": "Active"
    },
    {
      "id": 6649,
      "datetime_utc": "2020-02-03T14:59:14Z",
      "amount": 168.0,
      "currency": "EUR",
      "number_of_persons": 8,
      "status": "Active"
    },
    {
      "id": 6650,
      "datetime_utc": "2020-02-03T15:07:57Z",
      "amount": 42.0,
      "currency": "EUR",
      "number_of_persons": 8,
      "status": "Active"
    },
    {
      "id": 6651,
      "datetime_utc": "2020-02-03T15:15:05Z",
      "amount": 168.0,
      "currency": "EUR",
      "number_of_persons": 8,
      "status": "Active"
    },
    {
      "id": 6654,
      "datetime_utc": "2020-02-03T15:19:59Z",
      "amount": 168.0,
      "currency": "EUR",
      "number_of_persons": 8,
      "status": "Active"
    },
    {
      "id": 6655,
      "datetime_utc": "2020-02-03T18:51:43Z",
      "amount": 252.0,
      "currency": "EUR",
      "number_of_persons": 12,
      "status": "Active"
    },
    {
      "id": 6656,
      "datetime_utc": "2020-02-03T18:55:36Z",
      "amount": 24.0,
      "currency": "EUR",
      "number_of_persons": 1,
      "status": "Active"
    },
    {
      "id": 6657,
      "datetime_utc": "2020-02-03T18:57:35Z",
      "amount": 73.0,
      "currency": "EUR",
      "number_of_persons": 2,
      "status": "Active"
    },
    {
      "id": 6658,
      "datetime_utc": "2020-02-03T18:59:21Z",
      "amount": 168.0,
      "currency": "EUR",
      "number_of_persons": 8,
      "status": "Active"
    },
    {
      "id": 6659,
      "datetime_utc": "2020-02-03T19:02:20Z",
      "amount": 168.0,
      "currency": "EUR",
      "number_of_persons": 8,
      "status": "Active"
    },
    {
      "id": 6660,
      "datetime_utc": "2020-02-03T19:15:24Z",
      "amount": 252.0,
      "currency": "EUR",
      "number_of_persons": 12,
      "status": "Active"
    },
    {
      "id": 6661,
      "datetime_utc": "2020-02-03T19:18:47Z",
      "amount": 168.0,
      "currency": "EUR",
      "number_of_persons": 8,
      "status": "Active"
    },
    {
      "id": 6662,
      "datetime_utc": "2020-02-03T19:19:00Z",
      "amount": 168.0,
      "currency": "EUR",
      "number_of_persons": 8,
      "status": "Active"
    },
    {
      "id": 6663,
      "datetime_utc": "2020-02-03T19:21:12Z",
      "amount": 168.0,
      "currency": "EUR",
      "number_of_persons": 8,
      "status": "Active"
    },
    {
      "id": 6664,
      "datetime_utc": "2020-02-03T19:26:46Z",
      "amount": 24.0,
      "currency": "EUR",
      "number_of_persons": 1,
      "status": "Active"
    },
    {
      "id": 6665,
      "datetime_utc": "2020-02-03T19:37:09Z",
      "amount": 168.0,
      "currency": "EUR",
      "number_of_persons": 8,
      "status": "Active"
    },
    {
      "id": 6666,
      "datetime_utc": "2020-02-03T19:43:47Z",
      "amount": 24.0,
      "currency": "EUR",
      "number_of_persons": 1,
      "status": "Active"
    },
    {
      "id": 6667,
      "datetime_utc": "2020-02-04T16:48:33Z",
      "amount": 168.0,
      "currency": "EUR",
      "number_of_persons": 8,
      "status": "Active"
    },
    {
      "id": 6668,
      "datetime_utc": "2020-02-04T16:58:09Z",
      "amount": 168.0,
      "currency": "EUR",
      "number_of_persons": 8,
      "status": "Active"
    },
    {
      "id": 6669,
      "datetime_utc": "2020-02-04T16:58:15Z",
      "amount": 168.0,
      "currency": "EUR",
      "number_of_persons": 8,
      "status": "Active"
    },
    {
      "id": 6670,
      "datetime_utc": "2020-02-04T17:06:11Z",
      "amount": 168.0,
      "currency": "EUR",
      "number_of_persons": 8,
      "status": "Active"
    },
    {
      "id": 6671,
      "datetime_utc": "2020-02-04T17:12:07Z",
      "amount": 168.0,
      "currency": "EUR",
      "number_of_persons": 8,
      "status": "Active"
    },
    {
      "id": 6672,
      "datetime_utc": "2020-02-05T08:34:01Z",
      "amount": 70.0,
      "currency": "USD",
      "number_of_persons": 2,
      "status": "Active"
    },
    {
      "id": 6673,
      "datetime_utc": "2020-02-10T17:53:25Z",
      "amount": 168.0,
      "currency": "USD",
      "number_of_persons": 8,
      "status": "Active"
    },
    {
      "id": 6677,
      "datetime_utc": "2020-02-10T21:05:50Z",
      "amount": 168.0,
      "currency": "USD",
      "number_of_persons": 8,
      "status": "Active"
    },
    {
      "id": 6678,
      "datetime_utc": "2020-02-10T21:06:49Z",
      "amount": 168.0,
      "currency": "USD",
      "number_of_persons": 8,
      "status": "Active"
    },
    {
      "id": 6680,
      "datetime_utc": "2020-02-11T23:43:28Z",
      "amount": 168.0,
      "currency": "USD",
      "number_of_persons": 8,
      "status": "Active"
    },
    {
      "id": 6685,
      "datetime_utc": "2020-02-12T22:59:45Z",
      "amount": 168.0,
      "currency": "USD",
      "number_of_persons": 8,
      "status": "Active"
    },
    {
      "id": 6688,
      "datetime_utc": "2020-02-14T17:43:55Z",
      "amount": 73.0,
      "currency": "USD",
      "number_of_persons": 2,
      "status": "Active"
    },
    {
      "id": 6689,
      "datetime_utc": "2020-02-17T11:23:22Z",
      "amount": 369.0,
      "currency": "USD",
      "number_of_persons": 6,
      "status": "Active"
    },
    {
      "id": 6690,
      "datetime_utc": "2020-02-17T16:24:08Z",
      "amount": 73.0,
      "currency": "USD",
      "number_of_persons": 2,
      "status": "Active"
    },
    {
      "id": 6691,
      "datetime_utc": "2020-02-17T17:47:20Z",
      "amount": 73.0,
      "currency": "USD",
      "number_of_persons": 2,
      "status": "Active"
    },
    {
      "id": 6692,
      "datetime_utc": "2020-02-17T17:56:35Z",
      "amount": 73.0,
      "currency": "USD",
      "number_of_persons": 2,
      "status": "Active"
    },
    {
      "id": 6693,
      "datetime_utc": "2020-02-17T18:47:45Z",
      "amount": 24.0,
      "currency": "USD",
      "number_of_persons": 1,
      "status": "Active"
    },
    {
      "id": 6697,
      "datetime_utc": "2020-02-18T14:36:07Z",
      "amount": 203.0,
      "currency": "USD",
      "number_of_persons": 5,
      "status": "Active"
    },
    {
      "id": 6698,
      "datetime_utc": "2020-02-18T14:39:11Z",
      "amount": 143.0,
      "currency": "USD",
      "number_of_persons": 4,
      "status": "Active"
    },
    {
      "id": 6699,
      "datetime_utc": "2020-02-18T14:48:19Z",
      "amount": 143.0,
      "currency": "USD",
      "number_of_persons": 4,
      "status": "Active"
    },
    {
      "id": 6700,
      "datetime_utc": "2020-02-18T14:48:58Z",
      "amount": 143.0,
      "currency": "USD",
      "number_of_persons": 4,
      "status": "Active"
    },
    {
      "id": 6701,
      "datetime_utc": "2020-02-18T14:52:16Z",
      "amount": 143.0,
      "currency": "USD",
      "number_of_persons": 4,
      "status": "Active"
    },
    {
      "id": 6702,
      "datetime_utc": "2020-02-18T14:53:15Z",
      "amount": 143.0,
      "currency": "USD",
      "number_of_persons": 4,
      "status": "Active"
    },
    {
      "id": 6703,
      "datetime_utc": "2020-02-18T15:06:33Z",
      "amount": 143.0,
      "currency": "USD",
      "number_of_persons": 4,
      "status": "Active"
    },
    {
      "id": 6704,
      "datetime_utc": "2020-02-18T15:50:46Z",
      "amount": 168.0,
      "currency": "USD",
      "number_of_persons": 8,
      "status": "Active"
    },
    {
      "id": 6705,
      "datetime_utc": "2020-02-18T15:54:44Z",
      "amount": 168.0,
      "currency": "USD",
      "number_of_persons": 8,
      "status": "Active"
    },
    {
      "id": 6706,
      "datetime_utc": "2020-02-18T15:59:21Z",
      "amount": 168.0,
      "currency": "USD",
      "number_of_persons": 8,
      "status": "Active"
    },
    {
      "id": 6711,
      "datetime_utc": "2020-02-18T17:10:18Z",
      "amount": 168.0,
      "currency": "USD",
      "number_of_persons": 8,
      "status": "Active"
    },
    {
      "id": 6715,
      "datetime_utc": "2020-02-18T17:38:00Z",
      "amount": 535.0,
      "currency": "USD",
      "number_of_persons": 5,
      "status": "Active"
    },
    {
      "id": 6718,
      "datetime_utc": "2020-02-18T18:58:08Z",
      "amount": 24.0,
      "currency": "USD",
      "number_of_persons": 1,
      "status": "Cancelled"
    },
    {
      "id": 6719,
      "datetime_utc": "2020-02-18T19:11:52Z",
      "amount": 24.0,
      "currency": "USD",
      "number_of_persons": 1,
      "status": "Cancelled"
    },
    {
      "id": 6720,
      "datetime_utc": "2020-02-18T19:14:51Z",
      "amount": 24.0,
      "currency": "USD",
      "number_of_persons": 1,
      "status": "Cancelled"
    },
    {
      "id": 6726,
      "datetime_utc": "2020-02-19T22:12:32Z",
      "amount": 21.0,
      "currency": "USD",
      "number_of_persons": 8,
      "status": "Active"
    },
    {
      "id": 6727,
      "datetime_utc": "2020-02-19T22:14:11Z",
      "amount": 168.0,
      "currency": "USD",
      "number_of_persons": 8,
      "status": "Cancelled"
    },
    {
      "id": 6728,
      "datetime_utc": "2020-02-19T22:20:36Z",
      "amount": 168.0,
      "currency": "USD",
      "number_of_persons": 8,
      "status": "Cancelled"
    },
    {
      "id": 6729,
      "datetime_utc": "2020-02-19T22:32:17Z",
      "amount": 168.0,
      "currency": "USD",
      "number_of_persons": 8,
      "status": "Active"
    },
    {
      "id": 6732,
      "datetime_utc": "2020-02-19T23:08:56Z",
      "amount": 24.0,
      "currency": "USD",
      "number_of_persons": 1,
      "status": "Active"
    },
    {
      "id": 6733,
      "datetime_utc": "2020-02-19T23:17:02Z",
      "amount": 24.0,
      "currency": "USD",
      "number_of_persons": 1,
      "status": "Active"
    },
    {
      "id": 6738,
      "datetime_utc": "2020-02-20T15:08:36Z",
      "amount": 143.0,
      "currency": "USD",
      "number_of_persons": 4,
      "status": "Active"
    },
    {
      "id": 6742,
      "datetime_utc": "2020-02-20T18:08:48Z",
      "amount": 252.0,
      "currency": "USD",
      "number_of_persons": 12,
      "status": "Active"
    },
    {
      "id": 6743,
      "datetime_utc": "2020-02-20T18:08:55Z",
      "amount": 252.0,
      "currency": "USD",
      "number_of_persons": 12,
      "status": "Active"
    },
    {
      "id": 6744,
      "datetime_utc": "2020-02-20T18:09:00Z",
      "amount": 252.0,
      "currency": "USD",
      "number_of_persons": 12,
      "status": "Active"
    },
    {
      "id": 6745,
      "datetime_utc": "2020-02-20T18:09:06Z",
      "amount": 252.0,
      "currency": "USD",
      "number_of_persons": 12,
      "status": "Active"
    },
    {
      "id": 6746,
      "datetime_utc": "2020-02-20T18:09:41Z",
      "amount": 143.0,
      "currency": "USD",
      "number_of_persons": 4,
      "status": "Active"
    },
    {
      "id": 6747,
      "datetime_utc": "2020-02-20T18:13:20Z",
      "amount": 143.0,
      "currency": "USD",
      "number_of_persons": 4,
      "status": "Active"
    },
    {
      "id": 6748,
      "datetime_utc": "2020-02-20T18:28:54Z",
      "amount": 5.0,
      "currency": "USD",
      "number_of_persons": 2,
      "status": "Active"
    },
    {
      "id": 6749,
      "datetime_utc": "2020-02-20T21:13:37Z",
      "amount": 252.0,
      "currency": "USD",
      "number_of_persons": 8,
      "status": "Active"
    },
    {
      "id": 6750,
      "datetime_utc": "2020-02-20T21:34:57Z",
      "amount": 231.0,
      "currency": "USD",
      "number_of_persons": 8,
      "status": "Active"
    },
    {
      "id": 6758,
      "datetime_utc": "2020-02-25T15:58:22Z",
      "amount": 45.0,
      "currency": "USD",
      "number_of_persons": 2,
      "status": "Active"
    },
    {
      "id": 6759,
      "datetime_utc": "2020-02-25T16:03:10Z",
      "amount": 24.0,
      "currency": "USD",
      "number_of_persons": 1,
      "status": "Active"
    },
    {
      "id": 6762,
      "datetime_utc": "2020-02-26T05:10:11Z",
      "amount": 7.0,
      "currency": "USD",
      "number_of_persons": 4,
      "status": "Active"
    },
    {
      "id": 6763,
      "datetime_utc": "2020-02-26T10:42:25Z",
      "amount": 9.0,
      "currency": "USD",
      "number_of_persons": 6,
      "status": "Active"
    },
    {
      "id": 6771,
      "datetime_utc": "2020-02-26T15:43:32Z",
      "amount": 168.0,
      "currency": "USD",
      "number_of_persons": 8,
      "status": "Active"
    },
    {
      "id": 6772,
      "datetime_utc": "2020-02-26T15:43:46Z",
      "amount": 252.0,
      "currency": "USD",
      "number_of_persons": 12,
      "status": "Active"
    },
    {
      "id": 6773,
      "datetime_utc": "2020-02-26T15:44:41Z",
      "amount": 168.0,
      "currency": "USD",
      "number_of_persons": 8,
      "status": "Active"
    },
    {
      "id": 6774,
      "datetime_utc": "2020-02-26T15:44:56Z",
      "amount": 168.0,
      "currency": "USD",
      "number_of_persons": 8,
      "status": "Active"
    },
    {
      "id": 6775,
      "datetime_utc": "2020-02-26T15:45:35Z",
      "amount": 168.0,
      "currency": "USD",
      "number_of_persons": 8,
      "status": "Active"
    },
    {
      "id": 6776,
      "datetime_utc": "2020-02-26T15:45:46Z",
      "amount": 168.0,
      "currency": "USD",
      "number_of_persons": 8,
      "status": "Cancelled"
    },
    {
      "id": 6783,
      "datetime_utc": "2020-02-26T23:21:09Z",
      "amount": 24.0,
      "currency": "USD",
      "number_of_persons": 1,
      "status": "Active"
    },
    {
      "id": 6786,
      "datetime_utc": "2020-02-27T09:28:51Z",
      "amount": 178.0,
      "currency": "USD",
      "number_of_persons": 5,
      "status": "Active"
    },
    {
      "id": 6787,
      "datetime_utc": "2020-02-27T09:34:14Z",
      "amount": 129.0,
      "currency": "USD",
      "number_of_persons": 6,
      "status": "Active"
    },
    {
      "id": 6788,
      "datetime_utc": "2020-02-27T09:52:23Z",
      "amount": 147.0,
      "currency": "USD",
      "number_of_persons": 12,
      "status": "Active"
    },
    {
      "id": 6789,
      "datetime_utc": "2020-02-27T09:56:32Z",
      "amount": 147.0,
      "currency": "USD",
      "number_of_persons": 12,
      "status": "Active"
    },
    {
      "id": 6793,
      "datetime_utc": "2020-02-27T10:57:30Z",
      "amount": 168.0,
      "currency": "USD",
      "number_of_persons": 12,
      "status": "Active"
    },
    {
      "id": 6800,
      "datetime_utc": "2020-03-03T14:35:03Z",
      "amount": 143.0,
      "currency": "USD",
      "number_of_persons": 4,
      "status": "Active"
    },
    {
      "id": 6802,
      "datetime_utc": "2020-03-03T14:51:16Z",
      "amount": 213.0,
      "currency": "USD",
      "number_of_persons": 6,
      "status": "Active"
    },
    {
      "id": 6805,
      "datetime_utc": "2020-03-03T21:13:03Z",
      "amount": 143.0,
      "currency": "USD",
      "number_of_persons": 4,
      "status": "Active"
    },
    {
      "id": 6806,
      "datetime_utc": "2020-03-03T21:16:13Z",
      "amount": 143.0,
      "currency": "USD",
      "number_of_persons": 4,
      "status": "Active"
    },
    {
      "id": 6807,
      "datetime_utc": "2020-03-03T21:39:47Z",
      "amount": 45.0,
      "currency": "USD",
      "number_of_persons": 2,
      "status": "Active"
    },
    {
      "id": 6808,
      "datetime_utc": "2020-03-04T15:59:06Z",
      "amount": 227.0,
      "currency": "USD",
      "number_of_persons": 5,
      "status": "Active"
    },
    {
      "id": 6821,
      "datetime_utc": "2020-03-09T20:01:05Z",
      "amount": 73.0,
      "currency": "USD",
      "number_of_persons": 2,
      "status": "Active"
    },
    {
      "id": 6830,
      "datetime_utc": "2020-03-10T16:38:55Z",
      "amount": 45.0,
      "currency": "USD",
      "number_of_persons": 2,
      "status": "Active"
    },
    {
      "id": 6831,
      "datetime_utc": "2020-03-10T16:42:38Z",
      "amount": 45.0,
      "currency": "USD",
      "number_of_persons": 2,
      "status": "Active"
    },
    {
      "id": 6832,
      "datetime_utc": "2020-03-10T17:17:16Z",
      "amount": 24.0,
      "currency": "USD",
      "number_of_persons": 1,
      "status": "Active"
    },
    {
      "id": 6833,
      "datetime_utc": "2020-03-10T18:00:52Z",
      "amount": 45.0,
      "currency": "USD",
      "number_of_persons": 2,
      "status": "Active"
    },
    {
      "id": 6834,
      "datetime_utc": "2020-03-10T18:26:19Z",
      "amount": 24.0,
      "currency": "USD",
      "number_of_persons": 1,
      "status": "Active"
    },
    {
      "id": 6835,
      "datetime_utc": "2020-03-10T18:29:14Z",
      "amount": 73.0,
      "currency": "USD",
      "number_of_persons": 2,
      "status": "Active"
    },
    {
      "id": 6836,
      "datetime_utc": "2020-03-10T20:21:43Z",
      "amount": 24.0,
      "currency": "USD",
      "number_of_persons": 1,
      "status": "Active"
    },
    {
      "id": 6837,
      "datetime_utc": "2020-03-11T05:25:08Z",
      "amount": 24.0,
      "currency": "USD",
      "number_of_persons": 1,
      "status": "Active"
    },
    {
      "id": 6842,
      "datetime_utc": "2020-03-12T00:14:04Z",
      "amount": 73.0,
      "currency": "USD",
      "number_of_persons": 2,
      "status": "Active"
    },
    {
      "id": 6843,
      "datetime_utc": "2020-03-12T08:20:33Z",
      "amount": 90.0,
      "currency": "USD",
      "number_of_persons": 6,
      "status": "Active"
    },
    {
      "id": 6844,
      "datetime_utc": "2020-03-12T08:37:04Z",
      "amount": 111.15,
      "currency": "USD",
      "number_of_persons": 5,
      "status": "Active"
    },
    {
      "id": 6846,
      "datetime_utc": "2020-03-12T09:12:56Z",
      "amount": 52.0,
      "currency": "USD",
      "number_of_persons": 2,
      "status": "Active"
    },
    {
      "id": 6847,
      "datetime_utc": "2020-03-12T09:17:52Z",
      "amount": 48.0,
      "currency": "USD",
      "number_of_persons": 2,
      "status": "Active"
    },
    {
      "id": 6849,
      "datetime_utc": "2020-03-12T11:40:15Z",
      "amount": 90.0,
      "currency": "USD",
      "number_of_persons": 4,
      "status": "Active"
    },
    {
      "id": 6850,
      "datetime_utc": "2020-03-12T12:07:38Z",
      "amount": 27.0,
      "currency": "USD",
      "number_of_persons": 1,
      "status": "Active"
    },
    {
      "id": 6853,
      "datetime_utc": "2020-03-12T15:10:31Z",
      "amount": 219.3,
      "currency": "USD",
      "number_of_persons": 6,
      "status": "Active"
    },
    {
      "id": 6854,
      "datetime_utc": "2020-03-12T17:09:29Z",
      "amount": 219.3,
      "currency": "USD",
      "number_of_persons": 6,
      "status": "Active"
    },
    {
      "id": 6855,
      "datetime_utc": "2020-03-12T17:39:02Z",
      "amount": 183.25,
      "currency": "USD",
      "number_of_persons": 5,
      "status": "Active"
    },
    {
      "id": 6856,
      "datetime_utc": "2020-03-13T09:03:36Z",
      "amount": 48.0,
      "currency": "USD",
      "number_of_persons": 2,
      "status": "Active"
    },
    {
      "id": 6857,
      "datetime_utc": "2020-03-13T09:44:01Z",
      "amount": 219.3,
      "currency": "USD",
      "number_of_persons": 6,
      "status": "Active"
    },
    {
      "id": 6858,
      "datetime_utc": "2020-03-13T09:48:26Z",
      "amount": 212.09,
      "currency": "USD",
      "number_of_persons": 4,
      "status": "Active"
    },
    {
      "id": 6860,
      "datetime_utc": "2020-03-13T15:21:24Z",
      "amount": 48.0,
      "currency": "USD",
      "number_of_persons": 2,
      "status": "Active"
    },
    {
      "id": 6861,
      "datetime_utc": "2020-03-13T17:13:21Z",
      "amount": 183.25,
      "currency": "USD",
      "number_of_persons": 5,
      "status": "Active"
    },
    {
      "id": 6862,
      "datetime_utc": "2020-03-13T17:19:18Z",
      "amount": 219.3,
      "currency": "USD",
      "number_of_persons": 6,
      "status": "Active"
    },
    {
      "id": 6863,
      "datetime_utc": "2020-03-16T19:27:16Z",
      "amount": 76.0,
      "currency": "USD",
      "number_of_persons": 2,
      "status": "Active"
    },
    {
      "id": 6864,
      "datetime_utc": "2020-03-16T20:20:55Z",
      "amount": 76.0,
      "currency": "USD",
      "number_of_persons": 2,
      "status": "Active"
    },
    {
      "id": 6865,
      "datetime_utc": "2020-03-17T20:14:45Z",
      "amount": 76.0,
      "currency": "USD",
      "number_of_persons": 2,
      "status": "Active"
    },
    {
      "id": 6867,
      "datetime_utc": "2020-03-18T15:22:17Z",
      "amount": 76.0,
      "currency": "USD",
      "number_of_persons": 2,
      "status": "Active"
    },
    {
      "id": 6868,
      "datetime_utc": "2020-03-18T17:00:32Z",
      "amount": 76.0,
      "currency": "USD",
      "number_of_persons": 2,
      "status": "Active"
    },
    {
      "id": 6869,
      "datetime_utc": "2020-03-18T17:27:23Z",
      "amount": 76.0,
      "currency": "USD",
      "number_of_persons": 2,
      "status": "Active"
    },
    {
      "id": 6870,
      "datetime_utc": "2020-03-18T17:38:45Z",
      "amount": 76.0,
      "currency": "USD",
      "number_of_persons": 2,
      "status": "Active"
    },
    {
      "id": 6871,
      "datetime_utc": "2020-03-18T17:42:04Z",
      "amount": 76.0,
      "currency": "USD",
      "number_of_persons": 2,
      "status": "Active"
    },
    {
      "id": 6872,
      "datetime_utc": "2020-03-18T20:46:01Z",
      "amount": 76.0,
      "currency": "USD",
      "number_of_persons": 2,
      "status": "Active"
    },
    {
      "id": 6873,
      "datetime_utc": "2020-03-18T20:51:45Z",
      "amount": 76.0,
      "currency": "USD",
      "number_of_persons": 2,
      "status": "Active"
    },
    {
      "id": 6874,
      "datetime_utc": "2020-03-18T21:06:10Z",
      "amount": 76.0,
      "currency": "USD",
      "number_of_persons": 2,
      "status": "Active"
    },
    {
      "id": 6875,
      "datetime_utc": "2020-03-18T21:07:47Z",
      "amount": 76.0,
      "currency": "USD",
      "number_of_persons": 2,
      "status": "Active"
    },
    {
      "id": 6876,
      "datetime_utc": "2020-03-19T08:23:57Z",
      "amount": 69.0,
      "currency": "USD",
      "number_of_persons": 3,
      "status": "Active"
    },
    {
      "id": 6877,
      "datetime_utc": "2020-03-19T08:28:31Z",
      "amount": 176.04,
      "currency": "USD",
      "number_of_persons": 8,
      "status": "Active"
    },
    {
      "id": 6878,
      "datetime_utc": "2020-03-19T08:30:23Z",
      "amount": 90.0,
      "currency": "USD",
      "number_of_persons": 4,
      "status": "Active"
    },
    {
      "id": 6883,
      "datetime_utc": "2020-03-19T15:50:09Z",
      "amount": 48.0,
      "currency": "USD",
      "number_of_persons": 2,
      "status": "Active"
    },
    {
      "id": 6885,
      "datetime_utc": "2020-03-19T16:06:59Z",
      "amount": 69.0,
      "currency": "USD",
      "number_of_persons": 3,
      "status": "Active"
    },
    {
      "id": 6887,
      "datetime_utc": "2020-03-19T17:35:21Z",
      "amount": 76.0,
      "currency": "USD",
      "number_of_persons": 2,
      "status": "Active"
    },
    {
      "id": 6889,
      "datetime_utc": "2020-03-19T18:10:26Z",
      "amount": 176.04,
      "currency": "USD",
      "number_of_persons": 8,
      "status": "Active"
    },
    {
      "id": 6892,
      "datetime_utc": "2020-03-19T18:18:30Z",
      "amount": 90.0,
      "currency": "USD",
      "number_of_persons": 4,
      "status": "Active"
    },
    {
      "id": 6896,
      "datetime_utc": "2020-03-19T23:59:42Z",
      "amount": 176.04,
      "currency": "USD",
      "number_of_persons": 8,
      "status": "Active"
    },
    {
      "id": 6897,
      "datetime_utc": "2020-03-20T00:38:41Z",
      "amount": 176.04,
      "currency": "USD",
      "number_of_persons": 8,
      "status": "Active"
    },
    {
      "id": 6898,
      "datetime_utc": "2020-03-20T01:12:24Z",
      "amount": 176.04,
      "currency": "USD",
      "number_of_persons": 8,
      "status": "Active"
    },
    {
      "id": 6901,
      "datetime_utc": "2020-03-20T13:50:30Z",
      "amount": 132.78,
      "currency": "USD",
      "number_of_persons": 6,
      "status": "Active"
    },
    {
      "id": 6903,
      "datetime_utc": "2020-03-20T14:06:36Z",
      "amount": 291.4,
      "currency": "USD",
      "number_of_persons": 8,
      "status": "Active"
    },
    {
      "id": 6905,
      "datetime_utc": "2020-03-20T14:24:33Z",
      "amount": 111.15,
      "currency": "USD",
      "number_of_persons": 3,
      "status": "Active"
    },
    {
      "id": 6908,
      "datetime_utc": "2020-03-20T15:27:53Z",
      "amount": 176.04,
      "currency": "USD",
      "number_of_persons": 8,
      "status": "Active"
    },
    {
      "id": 6910,
      "datetime_utc": "2020-03-20T15:35:55Z",
      "amount": 90.0,
      "currency": "USD",
      "number_of_persons": 4,
      "status": "Active"
    },
    {
      "id": 6911,
      "datetime_utc": "2020-03-20T15:42:45Z",
      "amount": 305.82,
      "currency": "USD",
      "number_of_persons": 6,
      "status": "Active"
    },
    {
      "id": 6912,
      "datetime_utc": "2020-03-20T15:46:24Z",
      "amount": 76.0,
      "currency": "USD",
      "number_of_persons": 2,
      "status": "Active"
    },
    {
      "id": 6913,
      "datetime_utc": "2020-03-20T17:45:40Z",
      "amount": 176.04,
      "currency": "USD",
      "number_of_persons": 8,
      "status": "Active"
    },
    {
      "id": 6914,
      "datetime_utc": "2020-03-20T17:48:14Z",
      "amount": 176.04,
      "currency": "USD",
      "number_of_persons": 8,
      "status": "Cancelled"
    },
    {
      "id": 6917,
      "datetime_utc": "2020-03-20T18:13:50Z",
      "amount": 48.0,
      "currency": "USD",
      "number_of_persons": 2,
      "status": "Cancelled"
    },
    {
      "id": 6919,
      "datetime_utc": "2020-03-20T21:56:47Z",
      "amount": 291.4,
      "currency": "USD",
      "number_of_persons": 8,
      "status": "Active"
    },
    {
      "id": 6921,
      "datetime_utc": "2020-03-21T16:14:19Z",
      "amount": 27.0,
      "currency": "USD",
      "number_of_persons": 1,
      "status": "Cancelled"
    },
    {
      "id": 6923,
      "datetime_utc": "2020-03-21T21:11:27Z",
      "amount": 48.0,
      "currency": "USD",
      "number_of_persons": 2,
      "status": "Active"
    },
    {
      "id": 6925,
      "datetime_utc": "2020-03-21T21:21:08Z",
      "amount": 76.0,
      "currency": "USD",
      "number_of_persons": 2,
      "status": "Active"
    },
    {
      "id": 6926,
      "datetime_utc": "2020-03-21T21:29:59Z",
      "amount": 27.0,
      "currency": "USD",
      "number_of_persons": 1,
      "status": "Active"
    }
  ],
  "order_lines": [
    {
      "id": 7907,
      "product_id": 330,
      "order_id": 6554,
      "quantity": 4,
      "price": 19.99
    },
    {
      "id": 7914,
      "product_id": 330,
      "order_id": 6558,
      "quantity": 10,
      "price": 19.99
    },
    {
      "id": 7916,
      "product_id": 330,
      "order_id": 6560,
      "quantity": 4,
      "price": 19.99
    },
    {
      "id": 7921,
      "product_id": 330,
      "order_id": 6564,
      "quantity": 4,
      "price": 19.99
    },
    {
      "id": 7922,
      "product_id": 330,
      "order_id": 6565,
      "quantity": 5,
      "price": 19.99
    },
    {
      "id": 7923,
      "product_id": 330,
      "order_id": 6566,
      "quantity": 7,
      "price": 19.99
    },
    {
      "id": 7926,
      "product_id": 330,
      "order_id": 6569,
      "quantity": 4,
      "price": 19.99
    },
    {
      "id": 7927,
      "product_id": 330,
      "order_id": 6570,
      "quantity": 4,
      "price": 19.99
    },
    {
      "id": 7928,
      "product_id": 330,
      "order_id": 6571,
      "quantity": 1,
      "price": 19.99
    },
    {
      "id": 7929,
      "product_id": 330,
      "order_id": 6572,
      "quantity": 1,
      "price": 19.99
    },
    {
      "id": 7930,
      "product_id": 330,
      "order_id": 6573,
      "quantity": 1,
      "price": 19.99
    },
    {
      "id": 7934,
      "product_id": 330,
      "order_id": 6591,
      "quantity": 6,
      "price": 18.0
    },
    {
      "id": 7937,
      "product_id": 330,
      "order_id": 6591,
      "quantity": 6,
      "price": 21.0
    },
    {
      "id": 7938,
      "product_id": 330,
      "order_id": 6592,
      "quantity": 12,
      "price": 21.0
    },
    {
      "id": 7939,
      "product_id": 330,
      "order_id": 6593,
      "quantity": 12,
      "price": 21.0
    },
    {
      "id": 7940,
      "product_id": 330,
      "order_id": 6594,
      "quantity": 1,
      "price": 21.0
    },
    {
      "id": 7941,
      "product_id": 330,
      "order_id": 6595,
      "quantity": 12,
      "price": 21.0
    },
    {
      "id": 7942,
      "product_id": 330,
      "order_id": 6596,
      "quantity": 12,
      "price": 21.0
    },
    {
      "id": 7943,
      "product_id": 330,
      "order_id": 6597,
      "quantity": 1,
      "price": 21.0
    },
    {
      "id": 7944,
      "product_id": 330,
      "order_id": 6598,
      "quantity": 1,
      "price": 21.0
    },
    {
      "id": 7945,
      "product_id": 330,
      "order_id": 6599,
      "quantity": 1,
      "price": 21.0
    },
    {
      "id": 7946,
      "product_id": 330,
      "order_id": 6600,
      "quantity": 5,
      "price": 21.0
    },
    {
      "id": 7949,
      "product_id": 330,
      "order_id": 6603,
      "quantity": 3,
      "price": 21.0
    },
    {
      "id": 7950,
      "product_id": 330,
      "order_id": 6604,
      "quantity": 12,
      "price": 21.0
    },
    {
      "id": 7951,
      "product_id": 330,
      "order_id": 6605,
      "quantity": 8,
      "price": 21.0
    },
    {
      "id": 7952,
      "product_id": 330,
      "order_id": 6606,
      "quantity": 1,
      "price": 21.0
    },
    {
      "id": 7953,
      "product_id": 330,
      "order_id": 6607,
      "quantity": 12,
      "price": 21.0
    },
    {
      "id": 7954,
      "product_id": 330,
      "order_id": 6608,
      "quantity": 2,
      "price": 18.0
    },
    {
      "id": 7957,
      "product_id": 330,
      "order_id": 6609,
      "quantity": 4,
      "price": 18.0
    },
    {
      "id": 7960,
      "product_id": 330,
      "order_id": 6610,
      "quantity": 4,
      "price": 21.0
    },
    {
      "id": 7963,
      "product_id": 330,
      "order_id": 6613,
      "quantity": 2,
      "price": 18.0
    },
    {
      "id": 7966,
      "product_id": 330,
      "order_id": 6614,
      "quantity": 2,
      "price": 21.0
    },
    {
      "id": 7967,
      "product_id": 330,
      "order_id": 6615,
      "quantity": 2,
      "price": 18.0
    },
    {
      "id": 7970,
      "product_id": 330,
      "order_id": 6616,
      "quantity": 2,
      "price": 21.0
    },
    {
      "id": 7971,
      "product_id": 330,
      "order_id": 6617,
      "quantity": 1,
      "price": 21.0
    },
    {
      "id": 7972,
      "product_id": 330,
      "order_id": 6618,
      "quantity": 3,
      "price": 21.0
    },
    {
      "id": 7973,
      "product_id": 330,
      "order_id": 6619,
      "quantity": 6,
      "price": 21.0
    },
    {
      "id": 7974,
      "product_id": 330,
      "order_id": 6620,
      "quantity": 6,
      "price": 21.0
    },
    {
      "id": 7975,
      "product_id": 330,
      "order_id": 6621,
      "quantity": 1,
      "price": 21.0
    },
    {
      "id": 7976,
      "product_id": 330,
      "order_id": 6622,
      "quantity": 2,
      "price": 18.0
    },
    {
      "id": 7979,
      "product_id": 330,
      "order_id": 6623,
      "quantity": 2,
      "price": 18.0
    },
    {
      "id": 7982,
      "product_id": 330,
      "order_id": 6624,
      "quantity": 2,
      "price": 18.0
    },
    {
      "id": 7985,
      "product_id": 330,
      "order_id": 6625,
      "quantity": 2,
      "price": 18.0
    },
    {
      "id": 7988,
      "product_id": 330,
      "order_id": 6626,
      "quantity": 2,
      "price": 18.0
    },
    {
      "id": 7991,
      "product_id": 330,
      "order_id": 6627,
      "quantity": 1,
      "price": 21.0
    },
    {
      "id": 7992,
      "product_id": 330,
      "order_id": 6628,
      "quantity": 1,
      "price": 21.0
    },
    {
      "id": 7993,
      "product_id": 330,
      "order_id": 6631,
      "quantity": 90,
      "price": 21.0
    },
    {
      "id": 7994,
      "product_id": 330,
      "order_id": 6633,
      "quantity": 40,
      "price": 21.0
    },
    {
      "id": 7995,
      "product_id": 330,
      "order_id": 6634,
      "quantity": 27,
      "price": 21.0
    },
    {
      "id": 7996,
      "product_id": 330,
      "order_id": 6644,
      "quantity": 2,
      "price": 18.0
    },
    {
      "id": 7999,
      "product_id": 330,
      "order_id": 6645,
      "quantity": 1,
      "price": 21.0
    },
    {
      "id": 8000,
      "product_id": 330,
      "order_id": 6646,
      "quantity": 1,
      "price": 21.0
    },
    {
      "id": 8005,
      "product_id": 330,
      "order_id": 6649,
      "quantity": 8,
      "price": 21.0
    },
    {
      "id": 8006,
      "product_id": 330,
      "order_id": 6650,
      "quantity": 2,
      "price": 21.0
    },
    {
      "id": 8007,
      "product_id": 330,
      "order_id": 6651,
      "quantity": 8,
      "price": 21.0
    },
    {
      "id": 8009,
      "product_id": 330,
      "order_id": 6654,
      "quantity": 8,
      "price": 21.0
    },
    {
      "id": 8010,
      "product_id": 330,
      "order_id": 6655,
      "quantity": 12,
      "price": 21.0
    },
    {
      "id": 8011,
      "product_id": 330,
      "order_id": 6656,
      "quantity": 1,
      "price": 21.0
    },
    {
      "id": 8012,
      "product_id": 330,
      "order_id": 6657,
      "quantity": 2,
      "price": 18.0
    },
    {
      "id": 8015,
      "product_id": 330,
      "order_id": 6658,
      "quantity": 8,
      "price": 21.0
    },
    {
      "id": 8016,
      "product_id": 330,
      "order_id": 6659,
      "quantity": 8,
      "price": 21.0
    },
    {
      "id": 8017,
      "product_id": 330,
      "order_id": 6660,
      "quantity": 12,
      "price": 21.0
    },
    {
      "id": 8018,
      "product_id": 330,
      "order_id": 6661,
      "quantity": 8,
      "price": 21.0
    },
    {
      "id": 8019,
      "product_id": 330,
      "order_id": 6662,
      "quantity": 8,
      "price": 21.0
    },
    {
      "id": 8020,
      "product_id": 330,
      "order_id": 6663,
      "quantity": 8,
      "price": 21.0
    },
    {
      "id": 8021,
      "product_id": 330,
      "order_id": 6664,
      "quantity": 1,
      "price": 21.0
    },
    {
      "id": 8022,
      "product_id": 330,
      "order_id": 6665,
      "quantity": 8,
      "price": 21.0
    },
    {
      "id": 8023,
      "product_id": 330,
      "order_id": 6666,
      "quantity": 1,
      "price": 21.0
    },
    {
      "id": 8024,
      "product_id": 330,
      "order_id": 6667,
      "quantity": 8,
      "price": 21.0
    },
    {
      "id": 8025,
      "product_id": 330,
      "order_id": 6668,
      "quantity": 8,
      "price": 21.0
    },
    {
      "id": 8026,
      "product_id": 330,
      "order_id": 6669,
      "quantity": 8,
      "price": 21.0
    },
    {
      "id": 8027,
      "product_id": 330,
      "order_id": 6670,
      "quantity": 8,
      "price": 21.0
    },
    {
      "id": 8028,
      "product_id": 330,
      "order_id": 6671,
      "quantity": 8,
      "price": 21.0
    },
    {
      "id": 8030,
      "product_id": 330,
      "order_id": 6672,
      "quantity": 2,
      "price": 18.0
    },
    {
      "id": 8032,
      "product_id": 330,
      "order_id": 6673,
      "quantity": 8,
      "price": 21.0
    },
    {
      "id": 8033,
      "product_id": 330,
      "order_id": 6677,
      "quantity": 8,
      "price": 21.0
    },
    {
      "id": 8034,
      "product_id": 330,
      "order_id": 6678,
      "quantity": 8,
      "price": 21.0
    },
    {
      "id": 8035,
      "product_id": 330,
      "order_id": 6680,
      "quantity": 8,
      "price": 21.0
    },
    {
      "id": 8036,
      "product_id": 330,
      "order_id": 6685,
      "quantity": 8,
      "price": 21.0
    },
    {
      "id": 8039,
      "product_id": 330,
      "order_id": 6688,
      "quantity": 2,
      "price": 18.0
    },
    {
      "id": 8042,
      "product_id": 330,
      "order_id": 6689,
      "quantity": 6,
      "price": 18.0
    },
    {
      "id": 8045,
      "product_id": 330,
      "order_id": 6689,
      "quantity": 6,
      "price": 21.0
    },
    {
      "id": 8046,
      "product_id": 335,
      "order_id": 6689,
      "quantity": 6,
      "price": 5.0
    },
    {
      "id": 8047,
      "product_id": 330,
      "order_id": 6690,
      "quantity": 2,
      "price": 18.0
    },
    {
      "id": 8050,
      "product_id": 330,
      "order_id": 6691,
      "quantity": 2,
      "price": 18.0
    },
    {
      "id": 8053,
      "product_id": 330,
      "order_id": 6692,
      "quantity": 2,
      "price": 18.0
    },
    {
      "id": 8056,
      "product_id": 330,
      "order_id": 6693,
      "quantity": 1,
      "price": 21.0
    },
    {
      "id": 8060,
      "product_id": 330,
      "order_id": 6697,
      "quantity": 5,
      "price": 18.0
    },
    {
      "id": 8063,
      "product_id": 335,
      "order_id": 6697,
      "quantity": 5,
      "price": 5.0
    },
    {
      "id": 8064,
      "product_id": 330,
      "order_id": 6698,
      "quantity": 4,
      "price": 18.0
    },
    {
      "id": 8067,
      "product_id": 330,
      "order_id": 6699,
      "quantity": 4,
      "price": 18.0
    },
    {
      "id": 8070,
      "product_id": 330,
      "order_id": 6700,
      "quantity": 4,
      "price": 18.0
    },
    {
      "id": 8073,
      "product_id": 330,
      "order_id": 6701,
      "quantity": 4,
      "price": 18.0
    },
    {
      "id": 8076,
      "product_id": 330,
      "order_id": 6702,
      "quantity": 4,
      "price": 18.0
    },
    {
      "id": 8079,
      "product_id": 330,
      "order_id": 6703,
      "quantity": 4,
      "price": 18.0
    },
    {
      "id": 8082,
      "product_id": 330,
      "order_id": 6704,
      "quantity": 8,
      "price": 21.0
    },
    {
      "id": 8083,
      "product_id": 330,
      "order_id": 6705,
      "quantity": 8,
      "price": 21.0
    },
    {
      "id": 8084,
      "product_id": 330,
      "order_id": 6706,
      "quantity": 8,
      "price": 21.0
    },
    {
      "id": 8087,
      "product_id": 330,
      "order_id": 6711,
      "quantity": 8,
      "price": 21.0
    },
    {
      "id": 8095,
      "product_id": 330,
      "order_id": 6715,
      "quantity": 5,
      "price": 21.0
    },
    {
      "id": 8096,
      "product_id": 330,
      "order_id": 6715,
      "quantity": 5,
      "price": 21.0
    },
    {
      "id": 8097,
      "product_id": 330,
      "order_id": 6715,
      "quantity": 5,
      "price": 21.0
    },
    {
      "id": 8101,
      "product_id": 330,
      "order_id": 6718,
      "quantity": 1,
      "price": 21.0
    },
    {
      "id": 8102,
      "product_id": 330,
      "order_id": 6719,
      "quantity": 1,
      "price": 21.0
    },
    {
      "id": 8103,
      "product_id": 330,
      "order_id": 6720,
      "quantity": 1,
      "price": 21.0
    },
    {
      "id": 8111,
      "product_id": 330,
      "order_id": 6726,
      "quantity": 1,
      "price": 21.0
    },
    {
      "id": 8112,
      "product_id": 330,
      "order_id": 6727,
      "quantity": 8,
      "price": 21.0
    },
    {
      "id": 8113,
      "product_id": 330,
      "order_id": 6728,
      "quantity": 8,
      "price": 21.0
    },
    {
      "id": 8114,
      "product_id": 330,
      "order_id": 6729,
      "quantity": 8,
      "price": 21.0
    },
    {
      "id": 8117,
      "product_id": 330,
      "order_id": 6732,
      "quantity": 1,
      "price": 21.0
    },
    {
      "id": 8118,
      "product_id": 330,
      "order_id": 6733,
      "quantity": 1,
      "price": 21.0
    },
    {
      "id": 8122,
      "product_id": 330,
      "order_id": 6738,
      "quantity": 4,
      "price": 18.0
    },
    {
      "id": 8128,
      "product_id": 330,
      "order_id": 6742,
      "quantity": 12,
      "price": 21.0
    },
    {
      "id": 8129,
      "product_id": 330,
      "order_id": 6743,
      "quantity": 12,
      "price": 21.0
    },
    {
      "id": 8130,
      "product_id": 330,
      "order_id": 6744,
      "quantity": 12,
      "price": 21.0
    },
    {
      "id": 8131,
      "product_id": 330,
      "order_id": 6745,
      "quantity": 12,
      "price": 21.0
    },
    {
      "id": 8133,
      "product_id": 330,
      "order_id": 6746,
      "quantity": 4,
      "price": 18.0
    },
    {
      "id": 8136,
      "product_id": 330,
      "order_id": 6747,
      "quantity": 4,
      "price": 18.0
    },
    {
      "id": 8139,
      "product_id": 330,
      "order_id": 6748,
      "quantity": 2,
      "price": 0.0
    },
    {
      "id": 8141,
      "product_id": 330,
      "order_id": 6749,
      "quantity": 12,
      "price": 21.0
    },
    {
      "id": 8142,
      "product_id": 330,
      "order_id": 6750,
      "quantity": 11,
      "price": 21.0
    },
    {
      "id": 8149,
      "product_id": 330,
      "order_id": 6758,
      "quantity": 2,
      "price": 21.0
    },
    {
      "id": 8150,
      "product_id": 330,
      "order_id": 6759,
      "quantity": 1,
      "price": 21.0
    },
    {
      "id": 8154,
      "product_id": 330,
      "order_id": 6762,
      "quantity": 4,
      "price": 0.0
    },
    {
      "id": 8157,
      "product_id": 330,
      "order_id": 6763,
      "quantity": 6,
      "price": 0.0
    },
    {
      "id": 8167,
      "product_id": 330,
      "order_id": 6771,
      "quantity": 8,
      "price": 21.0
    },
    {
      "id": 8168,
      "product_id": 330,
      "order_id": 6772,
      "quantity": 12,
      "price": 21.0
    },
    {
      "id": 8169,
      "product_id": 330,
      "order_id": 6773,
      "quantity": 8,
      "price": 21.0
    },
    {
      "id": 8170,
      "product_id": 330,
      "order_id": 6774,
      "quantity": 8,
      "price": 21.0
    },
    {
      "id": 8171,
      "product_id": 330,
      "order_id": 6775,
      "quantity": 8,
      "price": 21.0
    },
    {
      "id": 8172,
      "product_id": 330,
      "order_id": 6776,
      "quantity": 8,
      "price": 21.0
    },
    {
      "id": 8181,
      "product_id": 330,
      "order_id": 6783,
      "quantity": 1,
      "price": 21.0
    },
    {
      "id": 8185,
      "product_id": 330,
      "order_id": 6786,
      "quantity": 5,
      "price": 18.0
    },
    {
      "id": 8187,
      "product_id": 330,
      "order_id": 6787,
      "quantity": 6,
      "price": 21.0
    },
    {
      "id": 8188,
      "product_id": 330,
      "order_id": 6788,
      "quantity": 7,
      "price": 21.0
    },
    {
      "id": 8189,
      "product_id": 330,
      "order_id": 6789,
      "quantity": 7,
      "price": 21.0
    },
    {
      "id": 8193,
      "product_id": 330,
      "order_id": 6793,
      "quantity": 8,
      "price": 21.0
    },
    {
      "id": 8204,
      "product_id": 330,
      "order_id": 6800,
      "quantity": 4,
      "price": 18.0
    },
    {
      "id": 8208,
      "product_id": 330,
      "order_id": 6802,
      "quantity": 6,
      "price": 18.0
    },
    {
      "id": 8213,
      "product_id": 330,
      "order_id": 6805,
      "quantity": 4,
      "price": 18.0
    },
    {
      "id": 8216,
      "product_id": 330,
      "order_id": 6806,
      "quantity": 4,
      "price": 18.0
    },
    {
      "id": 8218,
      "product_id": 330,
      "order_id": 6807,
      "quantity": 2,
      "price": 21.0
    },
    {
      "id": 8220,
      "product_id": 330,
      "order_id": 6808,
      "quantity": 4,
      "price": 18.0
    },
    {
      "id": 8222,
      "product_id": 330,
      "order_id": 6808,
      "quantity": 4,
      "price": 21.0
    },
    {
      "id": 8253,
      "product_id": 330,
      "order_id": 6821,
      "quantity": 2,
      "price": 18.0
    },
    {
      "id": 8269,
      "product_id": 330,
      "order_id": 6830,
      "quantity": 2,
      "price": 21.0
    },
    {
      "id": 8270,
      "product_id": 330,
      "order_id": 6831,
      "quantity": 2,
      "price": 21.0
    },
    {
      "id": 8271,
      "product_id": 330,
      "order_id": 6832,
      "quantity": 1,
      "price": 21.0
    },
    {
      "id": 8272,
      "product_id": 330,
      "order_id": 6833,
      "quantity": 2,
      "price": 21.0
    },
    {
      "id": 8273,
      "product_id": 330,
      "order_id": 6834,
      "quantity": 1,
      "price": 21.0
    },
    {
      "id": 8275,
      "product_id": 330,
      "order_id": 6835,
      "quantity": 2,
      "price": 18.0
    },
    {
      "id": 8277,
      "product_id": 330,
      "order_id": 6836,
      "quantity": 1,
      "price": 21.0
    },
    {
      "id": 8278,
      "product_id": 330,
      "order_id": 6837,
      "quantity": 1,
      "price": 21.0
    },
    {
      "id": 8284,
      "product_id": 330,
      "order_id": 6842,
      "quantity": 2,
      "price": 18.0
    },
    {
      "id": 8286,
      "product_id": 330,
      "order_id": 6843,
      "quantity": 4,
      "price": 21.0
    },
    {
      "id": 8287,
      "product_id": 330,
      "order_id": 6844,
      "quantity": 5,
      "price": 21.0
    },
    {
      "id": 8289,
      "product_id": 330,
      "order_id": 6846,
      "quantity": 2,
      "price": 21.0
    },
    {
      "id": 8291,
      "product_id": 330,
      "order_id": 6847,
      "quantity": 2,
      "price": 21.0
    },
    {
      "id": 8292,
      "product_id": 330,
      "order_id": 6849,
      "quantity": 4,
      "price": 21.0
    },
    {
      "id": 8293,
      "product_id": 330,
      "order_id": 6850,
      "quantity": 1,
      "price": 21.0
    },
    {
      "id": 8297,
      "product_id": 330,
      "order_id": 6853,
      "quantity": 6,
      "price": 18.0
    },
    {
      "id": 8300,
      "product_id": 330,
      "order_id": 6854,
      "quantity": 6,
      "price": 18.0
    },
    {
      "id": 8303,
      "product_id": 330,
      "order_id": 6855,
      "quantity": 5,
      "price": 18.0
    },
    {
      "id": 8305,
      "product_id": 330,
      "order_id": 6856,
      "quantity": 2,
      "price": 21.0
    },
    {
      "id": 8307,
      "product_id": 330,
      "order_id": 6857,
      "quantity": 6,
      "price": 18.0
    },
    {
      "id": 8310,
      "product_id": 330,
      "order_id": 6858,
      "quantity": 4,
      "price": 18.0
    },
    {
      "id": 8312,
      "product_id": 330,
      "order_id": 6858,
      "quantity": 3,
      "price": 21.0
    },
    {
      "id": 8316,
      "product_id": 330,
      "order_id": 6860,
      "quantity": 2,
      "price": 21.0
    },
    {
      "id": 8318,
      "product_id": 330,
      "order_id": 6861,
      "quantity": 5,
      "price": 18.0
    },
    {
      "id": 8321,
      "product_id": 330,
      "order_id": 6862,
      "quantity": 6,
      "price": 18.0
    },
    {
      "id": 8324,
      "product_id": 330,
      "order_id": 6863,
      "quantity": 2,
      "price": 18.0
    },
    {
      "id": 8327,
      "product_id": 330,
      "order_id": 6864,
      "quantity": 2,
      "price": 18.0
    },
    {
      "id": 8330,
      "product_id": 330,
      "order_id": 6865,
      "quantity": 2,
      "price": 18.0
    },
    {
      "id": 8334,
      "product_id": 330,
      "order_id": 6867,
      "quantity": 2,
      "price": 18.0
    },
    {
      "id": 8337,
      "product_id": 330,
      "order_id": 6868,
      "quantity": 2,
      "price": 18.0
    },
    {
      "id": 8340,
      "product_id": 330,
      "order_id": 6869,
      "quantity": 2,
      "price": 18.0
    },
    {
      "id": 8343,
      "product_id": 330,
      "order_id": 6870,
      "quantity": 2,
      "price": 18.0
    },
    {
      "id": 8346,
      "product_id": 330,
      "order_id": 6871,
      "quantity": 2,
      "price": 18.0
    },
    {
      "id": 8349,
      "product_id": 330,
      "order_id": 6872,
      "quantity": 2,
      "price": 18.0
    },
    {
      "id": 8352,
      "product_id": 330,
      "order_id": 6873,
      "quantity": 2,
      "price": 18.0
    },
    {
      "id": 8355,
      "product_id": 330,
      "order_id": 6874,
      "quantity": 2,
      "price": 18.0
    },
    {
      "id": 8358,
      "product_id": 330,
      "order_id": 6875,
      "quantity": 2,
      "price": 18.0
    },
    {
      "id": 8360,
      "product_id": 330,
      "order_id": 6876,
      "quantity": 3,
      "price": 21.0
    },
    {
      "id": 8361,
      "product_id": 330,
      "order_id": 6877,
      "quantity": 8,
      "price": 21.0
    },
    {
      "id": 8362,
      "product_id": 330,
      "order_id": 6878,
      "quantity": 4,
      "price": 21.0
    },
    {
      "id": 8367,
      "product_id": 330,
      "order_id": 6883,
      "quantity": 2,
      "price": 21.0
    },
    {
      "id": 8369,
      "product_id": 330,
      "order_id": 6885,
      "quantity": 3,
      "price": 21.0
    },
    {
      "id": 8372,
      "product_id": 330,
      "order_id": 6887,
      "quantity": 2,
      "price": 18.0
    },
    {
      "id": 8375,
      "product_id": 330,
      "order_id": 6889,
      "quantity": 8,
      "price": 21.0
    },
    {
      "id": 8378,
      "product_id": 330,
      "order_id": 6892,
      "quantity": 4,
      "price": 21.0
    },
    {
      "id": 8382,
      "product_id": 330,
      "order_id": 6896,
      "quantity": 8,
      "price": 21.0
    },
    {
      "id": 8383,
      "product_id": 330,
      "order_id": 6897,
      "quantity": 8,
      "price": 21.0
    },
    {
      "id": 8384,
      "product_id": 330,
      "order_id": 6898,
      "quantity": 8,
      "price": 21.0
    },
    {
      "id": 8390,
      "product_id": 330,
      "order_id": 6901,
      "quantity": 6,
      "price": 21.0
    },
    {
      "id": 8393,
      "product_id": 330,
      "order_id": 6903,
      "quantity": 8,
      "price": 18.0
    },
    {
      "id": 8397,
      "product_id": 330,
      "order_id": 6905,
      "quantity": 3,
      "price": 18.0
    },
    {
      "id": 8401,
      "product_id": 330,
      "order_id": 6908,
      "quantity": 8,
      "price": 21.0
    },
    {
      "id": 8403,
      "product_id": 330,
      "order_id": 6910,
      "quantity": 4,
      "price": 21.0
    },
    {
      "id": 8404,
      "product_id": 330,
      "order_id": 6911,
      "quantity": 6,
      "price": 21.0
    },
    {
      "id": 8405,
      "product_id": 330,
      "order_id": 6911,
      "quantity": 6,
      "price": 21.0
    },
    {
      "id": 8407,
      "product_id": 335,
      "order_id": 6911,
      "quantity": 6,
      "price": 5.0
    },
    {
      "id": 8409,
      "product_id": 330,
      "order_id": 6912,
      "quantity": 2,
      "price": 18.0
    },
    {
      "id": 8411,
      "product_id": 330,
      "order_id": 6913,
      "quantity": 8,
      "price": 21.0
    },
    {
      "id": 8412,
      "product_id": 330,
      "order_id": 6914,
      "quantity": 8,
      "price": 21.0
    },
    {
      "id": 8415,
      "product_id": 330,
      "order_id": 6917,
      "quantity": 2,
      "price": 21.0
    },
    {
      "id": 8418,
      "product_id": 330,
      "order_id": 6919,
      "quantity": 8,
      "price": 18.0
    },
    {
      "id": 8421,
      "product_id": 330,
      "order_id": 6921,
      "quantity": 1,
      "price": 21.0
    },
    {
      "id": 8423,
      "product_id": 330,
      "order_id": 6923,
      "quantity": 2,
      "price": 21.0
    },
    {
      "id": 8426,
      "product_id": 330,
      "order_id": 6925,
      "quantity": 2,
      "price": 18.0
    },
    {
      "id": 8428,
      "product_id": 330,
      "order_id": 6926,
      "quantity": 1,
      "price": 21.0
    }
  ]
}
